{
    "youtube": {
        "kind": "youtube#searchListResponse",
        "etag": "jV2vAqRrNLkJcGepPr-6yB9sOBI",
        "nextPageToken": "CAEQAA",
        "regionCode": "US",
        "pageInfo": {
            "totalResults": 1000000,
            "resultsPerPage": 1
        },
        "items": [
            {
                "kind": "youtube#searchResult",
                "etag": "XuakADpwqpS2P3ZX9Mpnfjwxww0",
                "id": {
                    "kind": "youtube#video",
                    "videoId": "rNk1Wi8SvNc"
                }
            }
        ]
    },
    "imdb": {
        "searchType": "Title",
        "expression": "toy story",
        "results": [
            {
                "id": "tt0114709",
                "resultType": "Title",
                "image": "https://imdb-api.com/images/original/MV5BMDU2ZWJlMjktMTRhMy00ZTA5LWEzNDgtYmNmZTEwZTViZWJkXkEyXkFqcGdeQXVyNDQ2OTk4MzI@._V1_Ratio0.7273_AL_.jpg",
                "title": "Toy Story",
                "description": "(1995)"
            },
            {
                "id": "tt0847116",
                "resultType": "Title",
                "image": "https://imdb-api.com/images/original/nopicture.jpg",
                "title": "Toy Story",
                "description": "(1992) (Short)"
            },
            {
                "id": "tt1979376",
                "resultType": "Title",
                "image": "https://imdb-api.com/images/original/MV5BMTYzMDM4NzkxOV5BMl5BanBnXkFtZTgwNzM1Mzg2NzM@._V1_Ratio0.7273_AL_.jpg",
                "title": "Toy Story 4",
                "description": "(2019)"
            },
            {
                "id": "tt0435761",
                "resultType": "Title",
                "image": "https://imdb-api.com/images/original/MV5BMTgxOTY4Mjc0MF5BMl5BanBnXkFtZTcwNTA4MDQyMw@@._V1_Ratio0.7273_AL_.jpg",
                "title": "Toy Story 3",
                "description": "(2010)"
            },
            {
                "id": "tt2446040",
                "resultType": "Title",
                "image": "https://imdb-api.com/images/original/MV5BYTZkY2JjMDItYzEwMS00MjVlLTlhYjktMmI5YjYzMjdmZGMxXkEyXkFqcGdeQXVyNDIwODAwNzg@._V1_Ratio0.7273_AL_.jpg",
                "title": "Toy Story of Terror",
                "description": "(2013) (TV Short)"
            },
            {
                "id": "tt0120363",
                "resultType": "Title",
                "image": "https://imdb-api.com/images/original/MV5BMWM5ZDcxMTYtNTEyNS00MDRkLWI3YTItNThmMGExMWY4NDIwXkEyXkFqcGdeQXVyNjUwNzk3NDc@._V1_Ratio0.7273_AL_.jpg",
                "title": "Toy Story 2",
                "description": "(1999)"
            },
            {
                "id": "tt3473654",
                "resultType": "Title",
                "image": "https://imdb-api.com/images/original/MV5BOTc2OTA1MDM4M15BMl5BanBnXkFtZTgwNjczMDk5MjE@._V1_Ratio0.7273_AL_.jpg",
                "title": "Toy Story That Time Forgot",
                "description": "(2014) (TV Short)"
            },
            {
                "id": "tt3387520",
                "resultType": "Title",
                "image": "https://imdb-api.com/images/original/MV5BMmI1MGE0ODMtYWRlZC00ZDUxLWIyNGItYjgyNzhhMTRlOTI2XkEyXkFqcGdeQXVyOTQ5MTIwMjM@._V1_Ratio0.7273_AL_.jpg",
                "title": "Scary Stories to Tell in the Dark",
                "description": "(2019)"
            }
        ],
        "errorMessage": ""
    },
    "tmdb": {
        "page": 1,
        "total_results": 25,
        "total_pages": 2,
        "results": [
            {
                "popularity": 158.81,
                "vote_count": 6206,
                "video": false,
                "poster_path": "/w9kR8qbmQ01HwnvK4alvnQ2ca0L.jpg",
                "id": 301528,
                "adult": false,
                "backdrop_path": "/q62bpQ67qaXY0u6b2wFEnQYIbPd.jpg",
                "original_language": "en",
                "original_title": "Toy Story 4",
                "genre_ids": [
                    12,
                    16,
                    35,
                    10751,
                    14
                ],
                "title": "Toy Story 4",
                "vote_average": 7.6,
                "overview": "Woody has always been confident about his place in the world and that his priority is taking care of his kid, whether that's Andy or Bonnie. But when Bonnie adds a reluctant new toy called \"Forky\" to her room, a road trip adventure alongside old and new friends will show Woody how big the world can be for a toy.",
                "release_date": "2019-06-19"
            },
            {
                "popularity": 61.4,
                "id": 862,
                "video": false,
                "vote_count": 13102,
                "vote_average": 7.9,
                "title": "Toy Story",
                "release_date": "1995-10-30",
                "original_language": "en",
                "original_title": "Toy Story",
                "genre_ids": [
                    16,
                    35,
                    10751
                ],
                "backdrop_path": "/lxD5ak7BOoinRNehOCA85CQ8ubr.jpg",
                "adult": false,
                "overview": "Led by Woody, Andy's toys live happily in his room until Andy's birthday brings Buzz Lightyear onto the scene. Afraid of losing his place in Andy's heart, Woody plots against Buzz. But when circumstances separate Buzz and Woody from their owner, the duo eventually learns to put aside their differences.",
                "poster_path": "/uXDfjJbdP4ijW5hWSBrPrlKpxab.jpg"
            },
            {
                "popularity": 48.233,
                "vote_count": 9835,
                "video": false,
                "poster_path": "/yFWQkz2ynjwsazT6xQiIXEUsyuh.jpg",
                "id": 863,
                "adult": false,
                "backdrop_path": "/91qfG6VaxRsCh1SbIi1w2vxknsL.jpg",
                "original_language": "en",
                "original_title": "Toy Story 2",
                "genre_ids": [
                    16,
                    35,
                    10751
                ],
                "title": "Toy Story 2",
                "vote_average": 7.6,
                "overview": "Andy heads off to Cowboy Camp, leaving his toys to their own devices. Things shift into high gear when an obsessive toy collector named Al McWhiggen, owner of Al's Toy Barn kidnaps Woody. Andy's toys mount a daring rescue mission, Buzz Lightyear meets his match and Woody has to decide where he and his heart truly belong.",
                "release_date": "1999-10-30"
            },
            {
                "popularity": 44.087,
                "id": 10193,
                "video": false,
                "vote_count": 10772,
                "vote_average": 7.8,
                "title": "Toy Story 3",
                "release_date": "2010-06-16",
                "original_language": "en",
                "original_title": "Toy Story 3",
                "genre_ids": [
                    16,
                    10751,
                    35
                ],
                "backdrop_path": "/wE5JGzujfvDPMIfFjJyrhXFjZLc.jpg",
                "adult": false,
                "overview": "Woody, Buzz, and the rest of Andy's toys haven't been played with in years. With Andy about to go to college, the gang find themselves accidentally left at a nefarious day care center. The toys must band together to escape and return home to Andy.",
                "poster_path": "/4cpGytCB0eqvRks4FAlJoUJiFPG.jpg"
            },
            {
                "popularity": 23.296,
                "id": 256835,
                "video": false,
                "vote_count": 643,
                "vote_average": 7,
                "title": "Toy Story That Time Forgot",
                "release_date": "2014-12-02",
                "original_language": "en",
                "original_title": "Toy Story That Time Forgot",
                "genre_ids": [
                    16,
                    10751,
                    10770,
                    12,
                    35,
                    14
                ],
                "backdrop_path": "/k5O30sO1eP0gZkD4qj7BNKIww6q.jpg",
                "adult": false,
                "overview": "During a post-Christmas play date, the gang find themselves in uncharted territory when the coolest set of action figures ever turn out to be dangerously delusional. It's all up to Trixie, the triceratops, if the gang hopes to return to Bonnie's room in this Toy Story That Time Forgot.",
                "poster_path": "/jqQPN3X3aV5VmpTiEEASt36nlfi.jpg"
            },
            {
                "popularity": 4.389,
                "vote_count": 8,
                "video": false,
                "poster_path": "/rOaeh83eylKNBkPxUMAUAogb7rS.jpg",
                "id": 464729,
                "adult": false,
                "backdrop_path": "/oIgUXB3136p8Y1gf1jqmPdjAFOF.jpg",
                "original_language": "en",
                "original_title": "The Story Behind 'Toy Story'",
                "genre_ids": [
                    99
                ],
                "title": "The Story Behind 'Toy Story'",
                "vote_average": 8.8,
                "overview": "The documentary short of Toy Story of why and how the feature length blockbuster sleeper movie became a success and helps to boost Pixar's popularity of making one of the few animation movie production companies in the world today, especially in North America.",
                "release_date": "1996-12-18"
            },
            {
                "popularity": 3.297,
                "vote_count": 4,
                "video": false,
                "poster_path": "/pNwY2CctdBb464VKKslOe7c0A1R.jpg",
                "id": 210296,
                "adult": false,
                "backdrop_path": null,
                "original_language": "en",
                "original_title": "Charlie: A Toy Story",
                "genre_ids": [
                    10751
                ],
                "title": "Charlie: A Toy Story",
                "vote_average": 3.1,
                "overview": "Get ready for a hilarious fun-filled adventure as 10 year old Caden and his best friend, Charlie, a golden retriever, set out on a wild escapade around town thwarting the evil plans of the bumbling town bullies who are out to break into Caden's Dad's toy shop to steal his new one-of-a-kind toy invention that could literally change the world.",
                "release_date": "2013-04-02"
            },
            {
                "popularity": 2.6,
                "vote_count": 0,
                "video": false,
                "poster_path": "/oTQlHuKQawozyEgzI7bebX8BYLG.jpg",
                "id": 711704,
                "adult": false,
                "backdrop_path": null,
                "original_language": "en",
                "original_title": "The Making of 'Toy Story'",
                "genre_ids": [],
                "title": "The Making of 'Toy Story'",
                "vote_average": 0,
                "overview": "Documentary of the making of the groundbreaking Disney/Pixar animated hit movie.",
                "release_date": "1995-12-02"
            },
            {
                "popularity": 3.075,
                "vote_count": 9,
                "video": false,
                "poster_path": null,
                "id": 406122,
                "adult": false,
                "backdrop_path": null,
                "original_language": "en",
                "original_title": "Toy Story at 20: To Infinity and Beyond",
                "genre_ids": [
                    99
                ],
                "title": "Toy Story at 20: To Infinity and Beyond",
                "vote_average": 8.1,
                "overview": "Retrospective looking at the revolutionary computer-animated feature film Toy Story.",
                "release_date": "2015-12-10"
            },
            {
                "popularity": 0.917,
                "vote_count": 580,
                "video": false,
                "poster_path": "/aNDrMDZYmcoMlJa6K3VicYeAgt1.jpg",
                "id": 213121,
                "adult": false,
                "backdrop_path": "/chICYTbG39OUQHVoHP11ehIoXV7.jpg",
                "original_language": "en",
                "original_title": "Toy Story of Terror!",
                "genre_ids": [
                    12,
                    16,
                    35,
                    14,
                    10751,
                    10770
                ],
                "title": "Toy Story of Terror!",
                "vote_average": 7.2,
                "overview": "What starts out as a fun road trip for the Toy Story gang takes an unexpected turn for the worse when the trip detours to a roadside motel. After one of the toys goes missing, the others find themselves caught up in a mysterious sequence of events that must be solved before they all suffer the same fate in this Toy Story of Terror.",
                "release_date": "2013-10-16"
            },
            {
                "popularity": 1.367,
                "vote_count": 0,
                "video": false,
                "poster_path": null,
                "id": 757564,
                "adult": false,
                "backdrop_path": null,
                "original_language": "en",
                "original_title": "Child‘s Play: Toy Story Massacre",
                "genre_ids": [
                    16,
                    27
                ],
                "title": "Child‘s Play: Toy Story Massacre",
                "vote_average": 0,
                "overview": "Lee Hardcastle teamed up with Orion Pictures to bring you a big Andy‘s Room Welcome.",
                "release_date": "2019-06-21"
            },
            {
                "popularity": 0.93,
                "id": 519966,
                "video": false,
                "vote_count": 3,
                "vote_average": 10,
                "title": "The Great Canadian Toy Story",
                "release_date": "",
                "original_language": "en",
                "original_title": "The Great Canadian Toy Story",
                "genre_ids": [
                    99
                ],
                "backdrop_path": null,
                "adult": false,
                "overview": "From rags to riches, the behind-the-scenes story of Canadian toy manufacturer Spin Master is an inspiring saga of creativity and innovation.",
                "poster_path": null
            },
            {
                "popularity": 0.6,
                "vote_count": 0,
                "video": false,
                "poster_path": null,
                "id": 734325,
                "adult": false,
                "backdrop_path": null,
                "original_language": "en",
                "original_title": "Toy Story Toons Collection",
                "genre_ids": [],
                "title": "Toy Story Toons Collection",
                "vote_average": 0,
                "overview": "Set in between 'Toy Story 3' and 'Toy Story 4', these short stories follow Woody and the gang as they go on many adventures with Bonnie.",
                "release_date": ""
            },
            {
                "popularity": 1.321,
                "id": 455535,
                "video": false,
                "vote_count": 1,
                "vote_average": 10,
                "title": "Dancing Through Life: The Dorothy Toy Story",
                "release_date": "",
                "original_language": "en",
                "original_title": "Dancing Through Life: The Dorothy Toy Story",
                "genre_ids": [
                    99,
                    36
                ],
                "backdrop_path": "/kK6Z8tJLMmmU034b8WGZARJNY7U.jpg",
                "adult": false,
                "overview": "Swinging and twirling Dorothy Toy Fong the legendary tap dancer is still exciting at 99 years old. Award-winning reporter Rick Quan traces Fong’s journey as a famous duo with Paul Wing and exciting run with her Oriental Showgirl group. Fong’s wondrous spirit dances off the screen and into your heart.",
                "poster_path": "/f3m9NNYj557UI5rr7W0FxGngw6n.jpg"
            },
            {
                "popularity": 1.273,
                "vote_count": 2,
                "video": false,
                "poster_path": "/3dMsdWPDSW7USlexiDMjquoF7HU.jpg",
                "id": 626033,
                "adult": false,
                "backdrop_path": "/mBHJEQ7KlvbruHaakdeiT1jbmVH.jpg",
                "original_language": "pt",
                "original_title": "Toy Story 3: Na Moda com Ken!",
                "genre_ids": [
                    16,
                    35,
                    14,
                    10751
                ],
                "title": "Toy Story 3: Na Moda com Ken!",
                "vote_average": 10,
                "overview": "",
                "release_date": "2010-08-30"
            },
            {
                "popularity": 1.382,
                "vote_count": 16,
                "video": false,
                "poster_path": null,
                "id": 431575,
                "adult": false,
                "backdrop_path": "/bYWxAEsDeTDVA52q0Y68HSQ62bl.jpg",
                "original_language": "en",
                "original_title": "The Rogue One: A Star Wars Toy Story",
                "genre_ids": [
                    28
                ],
                "title": "The Rogue One: A Star Wars Toy Story",
                "vote_average": 6.6,
                "overview": "Craving the attention of her busy father, a 7-year-old Star Wars fan disobeys him and starts a rebellion with his Star Wars toy collection that would have surprising consequences.",
                "release_date": "2016-12-15"
            },
            {
                "popularity": 0.6,
                "id": 622544,
                "video": false,
                "vote_count": 0,
                "vote_average": 0,
                "title": "Toy Story 3: A Toy's Eye View - Creating a Whole New Land",
                "release_date": "",
                "original_language": "en",
                "original_title": "Toy Story 3: A Toy's Eye View - Creating a Whole New Land",
                "genre_ids": [],
                "backdrop_path": null,
                "adult": false,
                "overview": "A documentary of the process of building the Toy Story Playland at Walt Disney Studios Park.",
                "poster_path": null
            },
            {
                "popularity": 137.683,
                "vote_count": 101,
                "video": false,
                "poster_path": "/x6nxMirfWdPt5QJpleTMVPW3FWF.jpg",
                "id": 594530,
                "adult": false,
                "backdrop_path": "/ucbCMz45WsE4iyJIWiwewOpDwEI.jpg",
                "original_language": "en",
                "original_title": "Lamp Life",
                "genre_ids": [
                    16,
                    35,
                    10751
                ],
                "title": "Lamp Life",
                "vote_average": 7.3,
                "overview": "Bo Peep makes a big comeback in Disney and Pixar’s Toy Story 4 and she leads the way in the all-new animated short film, finally answering the questions about where Bo was since we last we saw her in Toy Story 2.",
                "release_date": "2020-01-31"
            },
            {
                "popularity": 11.382,
                "vote_count": 393,
                "video": false,
                "poster_path": "/yoNUZR5gFwJ822HSzcIr6y1wk1G.jpg",
                "id": 77887,
                "adult": false,
                "backdrop_path": "/laGkslxS65R0CH2hbSI0crgjKVU.jpg",
                "original_language": "en",
                "original_title": "Hawaiian Vacation",
                "genre_ids": [
                    16,
                    35,
                    10751,
                    10770
                ],
                "title": "Hawaiian Vacation",
                "vote_average": 7,
                "overview": "The toys throw Ken and Barbie a Hawaiian vacation in Bonnie's room.",
                "release_date": "2011-06-16"
            },
            {
                "popularity": 9.142,
                "vote_count": 264,
                "video": true,
                "poster_path": "/ozoGeGfkxLPe8dQWOdLtyLPGQt7.jpg",
                "id": 130925,
                "adult": false,
                "backdrop_path": "/4boXb1lsPnC4mvMYG9CkhaQBltq.jpg",
                "original_language": "en",
                "original_title": "Partysaurus Rex",
                "genre_ids": [
                    16,
                    35,
                    14,
                    10751
                ],
                "title": "Partysaurus Rex",
                "vote_average": 7.2,
                "overview": "When Rex finds himself left behind in the bathroom, he puts his limbs to use by getting a bath going for a bunch of new toy friends.",
                "release_date": "2012-09-14"
            }
        ]
    }
}